[gd_scene load_steps=4 format=2]

[ext_resource path="res://Sprites/set_button.png" type="Texture" id=1]
[ext_resource path="res://Theme/clear_button.stylebox" type="StyleBox" id=2]
[ext_resource path="res://Scripts/set_button.gd" type="Script" id=3]

[node name="set_button" type="Button"]
margin_right = 113.0
margin_bottom = 113.0
custom_styles/hover = ExtResource( 2 )
custom_styles/pressed = ExtResource( 2 )
custom_styles/focus = ExtResource( 2 )
custom_styles/disabled = ExtResource( 2 )
custom_styles/normal = ExtResource( 2 )
script = ExtResource( 3 )
__meta__ = {
"_edit_use_anchors_": false
}

[node name="progress" type="TextureProgress" parent="."]
margin_right = 113.0
margin_bottom = 113.0
texture_under = ExtResource( 1 )
texture_progress = ExtResource( 1 )
fill_mode = 4
tint_under = Color( 0.180392, 0.180392, 0.180392, 1 )
tint_progress = Color( 0, 1, 0.729412, 1 )
__meta__ = {
"_edit_use_anchors_": false
}
